version_num|version_name|model_name|rmse|notes
1|v0.1|benchmark_zero|812648.2381578537|Benchmark implementations of RandomForest, Neural Net, and Linear Regression. Only numeric features of beds, baths, rooms, sqft, lotsize, and beds & baths per sqft
1|v0.1|benchmark_mean|504401.6746409918|Benchmark implementations of RandomForest, Neural Net, and Linear Regression. Only numeric features of beds, baths, rooms, sqft, lotsize, and beds & baths per sqft
1|v0.1|LR|255922.68297034345|Benchmark implementations of RandomForest, Neural Net, and Linear Regression. Only numeric features of beds, baths, rooms, sqft, lotsize, and beds & baths per sqft
1|v0.1|NN|259544.96221720593|Benchmark implementations of RandomForest, Neural Net, and Linear Regression. Only numeric features of beds, baths, rooms, sqft, lotsize, and beds & baths per sqft
1|v0.1|RF|218347.7712510849|Benchmark implementations of RandomForest, Neural Net, and Linear Regression. Only numeric features of beds, baths, rooms, sqft, lotsize, and beds & baths per sqft
2|v0.2|benchmark_zero|812648.2381578537|Added Last Sale Price Feature
2|v0.2|benchmark_mean|504401.6746409918|Added Last Sale Price Feature
2|v0.2|LR|250693.78612397448|Added Last Sale Price Feature
2|v0.2|NN|275565.3952607891|Added Last Sale Price Feature
2|v0.2|RF|172297.13075026244|Added Last Sale Price Feature
3|v0.3|benchmark_zero|812648.2381578537|Added a bunch of nodes to the NN model.
3|v0.3|benchmark_mean|504401.6746409918|Added a bunch of nodes to the NN model.
3|v0.3|LR|250693.78612397448|Added a bunch of nodes to the NN model.
3|v0.3|NN|260007.2854703097|Added a bunch of nodes to the NN model.
3|v0.3|RF|171533.13955182245|Added a bunch of nodes to the NN model.
4|v0.4|LR|246574.5020548509|Added yearBuilt & priorSaleAmount features.
4|v0.4|NN|258948.16413605298|Added yearBuilt & priorSaleAmount features.
4|v0.4|RF|161527.74023497908|Added yearBuilt & priorSaleAmount features.
4|v0.4|benchmark_zero|812648.2381578537|Added yearBuilt & priorSaleAmount features.
4|v0.4|benchmark_mean|504401.6746409918|Added yearBuilt & priorSaleAmount features.
5|v0.5|benchmark_zero|812648.2381578537|Added categorical zipcode feature
5|v0.5|benchmark_mean|504401.6746409918|Added categorical zipcode feature
5|v0.5|LR|233990.80643005786|Added categorical zipcode feature
5|v0.5|NN|230881.04375826818|Added categorical zipcode feature
5|v0.5|RF|152795.30510987007|Added categorical zipcode feature
6|v0.6|benchmark_zero|812648.2381578537|Added daysSinceLastSale Feature
6|v0.6|benchmark_mean|504401.6746409918|Added daysSinceLastSale Feature
6|v0.6|LR|216816.51247942407|Added daysSinceLastSale Feature
6|v0.6|NN|230299.5175384816|Added daysSinceLastSale Feature
6|v0.6|RF|145945.33847374097|Added daysSinceLastSale Feature
7|v0.7|benchmark_zero|812648.2381578537|Added daysSincePriorSale Feature
7|v0.7|benchmark_mean|504401.6746409918|Added daysSincePriorSale Feature
7|v0.7|LR|216816.51247942407|Added daysSincePriorSale Feature
7|v0.7|NN|232950.5756908891|Added daysSincePriorSale Feature
7|v0.7|RF|145728.4143576544|Added daysSincePriorSale Feature
8|v0.8|LR|216816.51247942407|Added beds per bath Feature and implemented Gradient Boosting Model
8|v0.8|NN|231853.42420283536|Added beds per bath Feature and implemented Gradient Boosting Model
8|v0.8|RF|146190.7812131991|Added beds per bath Feature and implemented Gradient Boosting Model
9|v0.9|LR|165909.55044175402|Cleaned bad data from lastSaleAmount & priorSaleAmount features.
9|v0.9|NN|161234.48334076145|Cleaned bad data from lastSaleAmount & priorSaleAmount features.
9|v0.9|GBR|135836.01146861946|Cleaned bad data from lastSaleAmount & priorSaleAmount features.
8|v0.8|benchmark_zero|812648.2381578537|Added beds per bath Feature and implemented Gradient Boosting Model
8|v0.8|benchmark_mean|504401.6746409918|Added beds per bath Feature and implemented Gradient Boosting Model
8|v0.8|GBR|135576.73328374545|Added beds per bath Feature and implemented Gradient Boosting Model
9|v0.9|RF|144766.34773958373|Cleaned bad data from lastSaleAmount & priorSaleAmount features.
9|v0.9|benchmark_zero|812648.2381578537|Cleaned bad data from lastSaleAmount & priorSaleAmount features.
9|v0.9|benchmark_mean|504401.67464099184|Cleaned bad data from lastSaleAmount & priorSaleAmount features.
